^C:\ПРОГЕРСКИЕ ПРОГИ\UE4PT1_14\UE4PT1_14.CPP
C:\Прогерские проги\UE4PT1_14\X64\DEBUG\VC143.PDB
C:\Прогерские проги\UE4PT1_14\X64\DEBUG\VC143.IDB
C:\Прогерские проги\UE4PT1_14\X64\DEBUG\UE4PT1_14.OBJ
